[
  {
    "id": "1",
    "product": {
      "name": "Краска интерьерная PARADE Deluxe Absolute Pure Matt силиконовая",
      "vendorCode": "--",
      "category": "Краски",
      "price": "1 490",
      "productExist": true,
      "discountPrice": "",
      "titleImageLink": "https://www.dommalera.ru/upload/resize_cache/iblock/8e8/400_400_140cd750bba9870f18aada2478b24840a/8e8b21579f4dd1487d3c0a5a5e1b5a9e.jpg",
      "characteristics": [{
        "key": "Бренд",
        "value": "Parade Deluxe"
      },
        {
          "key": "Цвет",
          "value": "Белый"
        }],
      "describe": "Краска водно-дисперсионная PARADE DELUXE ABSOLUTE – интерьерная абсолютно матовая силиконовая краска премиум-класса. Образует суперпрочное долговечное покрытие с превосходными показателями. Для внутренних работ. Для окраски стен и потолков в жилых, офисных, общественных помещениях с нормальной влажностью. Краска в базе А предназначена для использования в качестве белой краски и для колеровки в светлые пастельные тона."
    }
  },
  {
    "id": "2",
    "product": {
      "name": "Масло-воск для наружных работ S&H Technology WOOD OIL 2,4л Черное дерево",
      "vendorCode": "-",
      "category": "Масла",
      "price": "1 677",
      "productExist": false,
      "discountPrice": "0",
      "titleImageLink": "https://www.dommalera.ru/upload/resize_cache/iblock/a7a/400_400_140cd750bba9870f18aada2478b24840a/a7a3188144b34c9ed62209d0688d032e.jpg",
      "characteristics": [{
        "key": "Бренд",
        "value": "S&H Technology"
      },
        {
          "key": "Цвет",
          "value": "Черное дерево"
        }
      ],
      "describe": "Разработано для обработки деревянных поверхностей, подверженных агрессивному атмосферному воздействию\nВыгодно подчеркивает природный рисунок древесины\nЗащищает от воздействия влаги, плесени, грибков\nУФ-фильтр замедляет процесс выцветания древесины\nОбеспечивает эффективную защиту от воздействия неблагоприятных погодных факторов (дождь/снег/перепады температуры)\nЭластичное покрытие не трескается и не шелушится\nПокрытие создает водоотталкивающий эффект"
    }
  },
  {
    "id": "3",
    "product": {
      "name": "Эмаль термостойкая DUFA HEIZKORPERLACK 2,5л Белая.",
      "vendorCode": "-",
      "category": "Эмали",
      "price": "2 180",
      "productExist": true,
      "discountPrice": "1 395",
      "titleImageLink": "https://www.dommalera.ru/upload/resize_cache/iblock/a93/400_400_140cd750bba9870f18aada2478b24840a/a930123882f0a034b0c2f54b249b243e.jpg",
      "characteristics": [{
        "key": "Бренд",
        "value": "Dufa"
      },
        {
          "key": "Цвет",
          "value": "Белый"
        }
      ],
      "describe": "Эмаль термостойкая DUFA HEIZKORPERLACK на базе синтетических смол  идеально подходит для окрашивания батарей систем отопления. В результате нанесения образует гладкую ровную пленку, не желтеет, равномерно закрашивает даже ранее окрашенную поверхность.  Термостойкая эмаль DUFA HEIZKORPERLACK быстро сохнет и после высыхания, отопительный прибор можно сразу же применять  в эксплуатацию. Рекомендуется для окрашивания поверхностей из стали и чугуна."
    }
  }
]
